CA_Final_Project/CA_Final_Project.sim/sim_1/behav/xsim/tb_Project.vcd
$date
   Thu Apr 23 03:18:21 2026
$end
$version
  2020.1
$end
$timescale
  1ps
$end
$scope module tb_Project $end
$var reg 1 ! clk $end
$var reg 1 " reset $end
$var wire 64 # w0 [63:0] $end
$var wire 64 $ w1 [63:0] $end
$var wire 64 % w2 [63:0] $end
$var wire 64 & w3 [63:0] $end
$var wire 64 ' w4 [63:0] $end
$var wire 64 ( w5 [63:0] $end
$var wire 64 ) w6 [63:0] $end
$var wire 64 * w7 [63:0] $end
$var wire 64 + PC_Out [63:0] $end
$var integer 32 , cycle $end
$scope module DUT $end
$var wire 1 - clk $end
$var wire 1 . reset $end
$var wire 64 / PC_Out [63:0] $end
$var wire 64 0 PC_Plus4 [63:0] $end
$var wire 64 1 BranchTarget [63:0] $end
$var wire 64 2 PC_Next [63:0] $end
$var wire 32 3 Instruction [31:0] $end
$var wire 7 4 opcode [6:0] $end
$var wire 7 5 funct7 [6:0] $end
$var wire 5 6 RS1 [4:0] $end
$var wire 5 7 RS2 [4:0] $end
$var wire 5 8 RD [4:0] $end
$var wire 3 9 funct3 [2:0] $end
$var wire 4 : Funct [3:0] $end
$var wire 4 ; Operation [3:0] $end
$var wire 64 < ImmData [63:0] $end
$var wire 64 = ALU_B_In [63:0] $end
$var wire 64 > ALU_Result [63:0] $end
$var wire 64 ? ReadData1 [63:0] $end
$var wire 64 @ ReadData2 [63:0] $end
$var wire 64 A WriteData [63:0] $end
$var wire 64 B ReadData [63:0] $end
$var wire 1 C Branch $end
$var wire 1 D MemRead $end
$var wire 1 E MemtoReg $end
$var wire 1 F MemWrite $end
$var wire 1 G ALUSrc $end
$var wire 1 H RegWrite $end
$var wire 2 I ALUOp [1:0] $end
$var wire 1 J Zero $end
$var wire 1 K BranchSelect $end
$var wire 1 L PCSrc $end
$var wire 64 M w0 [63:0] $end
$var wire 64 N w1 [63:0] $end
$var wire 64 O w2 [63:0] $end
$var wire 64 P w3 [63:0] $end
$var wire 64 Q w4 [63:0] $end
$var wire 64 R w5 [63:0] $end
$var wire 64 S w6 [63:0] $end
$var wire 64 T w7 [63:0] $end
$scope module PCA $end
$var wire 64 / PC [63:0] $end
$var wire 64 0 PC_Plus4 [63:0] $end
$upscope $end
$scope module BRA $end
$var wire 64 / PC [63:0] $end
$var wire 64 < Imm [63:0] $end
$var wire 64 1 BranchTarget [63:0] $end
$upscope $end
$scope module PC_MUX $end
$var wire 64 0 In0 [63:0] $end
$var wire 64 1 In1 [63:0] $end
$var wire 1 L PCSrc $end
$var wire 64 2 Out [63:0] $end
$upscope $end
$scope module PC_REG $end
$var wire 1 - clk $end
$var wire 1 . reset $end
$var wire 64 2 PC_In [63:0] $end
$var reg 64 U PC_Out [63:0] $end
$upscope $end
$scope module IM $end
$var wire 64 / Inst_Address [63:0] $end
$var reg 32 V Instruction [31:0] $end
$upscope $end
$scope module IP $end
$var wire 32 3 instruction [31:0] $end
$var reg 7 W opcode [6:0] $end
$var reg 5 X rd [4:0] $end
$var reg 3 Y funct3 [2:0] $end
$var reg 5 Z rs1 [4:0] $end
$var reg 5 [ rs2 [4:0] $end
$var reg 7 \ funct7 [6:0] $end
$upscope $end
$scope module IG $end
$var wire 32 3 instruction [31:0] $end
$var reg 64 ] imm_data [63:0] $end
$var wire 2 ^ code [1:0] $end
$upscope $end
$scope module CU $end
$var wire 7 4 Opcode [6:0] $end
$var reg 1 _ Branch $end
$var reg 1 ` MemRead $end
$var reg 1 a MemtoReg $end
$var reg 2 b ALUOp [1:0] $end
$var reg 1 c MemWrite $end
$var reg 1 d ALUSrc $end
$var reg 1 e RegWrite $end
$upscope $end
$scope module RF $end
$var wire 64 A WriteData [63:0] $end
$var wire 5 6 RS1 [4:0] $end
$var wire 5 7 RS2 [4:0] $end
$var wire 5 8 RD [4:0] $end
$var wire 1 H RegWrite $end
$var wire 1 - Clk $end
$var wire 1 . Reset $end
$var reg 64 f ReadData1 [63:0] $end
$var reg 64 g ReadData2 [63:0] $end
$var integer 32 h i $end
$upscope $end
$scope module BU $end
$var wire 3 9 funct3 [2:0] $end
$var wire 64 ? ReadData1 [63:0] $end
$var wire 64 @ ReadData2 [63:0] $end
$var reg 1 i branchSel $end
$upscope $end
$scope module ALU_SRC_MUX $end
$var wire 64 @ a [63:0] $end
$var wire 64 < b [63:0] $end
$var wire 1 G sel $end
$var wire 64 = data_out [63:0] $end
$upscope $end
$scope module ALUC $end
$var wire 2 I ALUOp [1:0] $end
$var wire 4 : Funct [3:0] $end
$var reg 4 j Operation [3:0] $end
$upscope $end
$scope module ALU $end
$var wire 64 ? a [63:0] $end
$var wire 64 = b [63:0] $end
$var wire 4 ; ALUOp [3:0] $end
$var reg 64 k Result [63:0] $end
$var wire 1 J Zero $end
$upscope $end
$scope module DM $end
$var wire 64 > Memory_Address [63:0] $end
$var wire 64 @ Write_Data [63:0] $end
$var wire 1 - clk $end
$var wire 1 F MemWrite $end
$var wire 1 D MemRead $end
$var reg 64 l ReadData [63:0] $end
$var wire 64 M w0 [63:0] $end
$var wire 64 N w1 [63:0] $end
$var wire 64 O w2 [63:0] $end
$var wire 64 P w3 [63:0] $end
$var wire 64 Q w4 [63:0] $end
$var wire 64 R w5 [63:0] $end
$var wire 64 S w6 [63:0] $end
$var wire 64 T w7 [63:0] $end
$var integer 32 m i $end
$upscope $end
$scope module WB_MUX $end
$var wire 64 > a [63:0] $end
$var wire 64 B b [63:0] $end
$var wire 1 E sel $end
$var wire 64 A data_out [63:0] $end
$upscope $end
$upscope $end
$upscope $end
$enddefinitions $end
#0
$dumpvars
0!
1"
b0 #
b0 $
b0 %
b0 &
b0 '
b0 (
b0 )
b0 *
bx +
bx ,
0-
1.
bx /
bx 0
bx 1
bx 2
bx 3
bx 4
bx 5
bx 6
bx 7
bx 8
bx 9
bx :
bx ;
bx <
bx =
b0 >
b0 ?
b0 @
bx A
bx B
xC
xD
xE
xF
xG
xH
bx I
1J
0K
0L
b0 M
b0 N
b0 O
b0 P
b0 Q
b0 R
b0 S
b0 T
bx U
bx V
bx W
bx X
bx Y
bx Z
bx [
bx \
bx ]
bx ^
x_
x`
xa
bx b
xc
xd
xe
b0 f
b0 g
b100000 h
0i
bx j
b0 k
bx l
b1000000000 m
$end
#5000
1!
b0 +
1-
b0 /
b100 0
b0 1
b100 2
b10010011 3
b10011 4
b0 5
b0 6
b0 7
b1 8
b0 9
b0 :
b10 ;
b0 <
b0 =
b0 A
0C
0D
0E
0F
1G
1H
b0 I
1K
0L
b0 U
b10010011 V
b10011 W
b1 X
b0 Y
b0 Z
b0 [
b0 \
b0 ]
b0 ^
0_
0`
0a
b0 b
0c
1d
1e
1i
b10 j
bx l
#10000
0!
0-
#15000
1!
1-
#16000
0"
b0 ,
0.
#20000
0!
0-
#25000
1!
b100 +
1-
b100 /
b1000 0
b110 1
b1000 2
b100000000000100010011 3
b1 7
b10 8
b1 <
b1 =
b1 >
b1 A
0J
b100 U
b100000000000100010011 V
b10 X
b1 [
b1 ]
b1 k
bx l
#26000
b1 ,
#30000
0!
0-
#35000
1!
b1000 +
1-
b1000 /
b1100 0
b10100 1
b1100 2
b11000000000001000010011 3
b110 7
b100 8
b110 <
b110 =
b110 >
b110 @
b110 A
0K
0L
b1000 U
b11000000000001000010011 V
b100 X
b110 [
b110 ]
b110 g
0i
b110 k
bx l
#36000
b10 ,
#40000
0!
0-
#45000
1!
b1100 +
1-
b1100 /
b10000 0
b1100 1
b10000 2
b1010010011 3
b0 7
b101 8
b0 <
b0 =
b0 >
b0 @
b0 A
1J
1K
0L
b1100 U
b1010010011 V
b101 X
b0 [
b0 ]
b0 g
1i
b0 k
bx l
#46000
b11 ,
#50000
0!
0-
#55000
1!
b10000 +
1-
b10000 /
b10100 0
b10000 1
b10100 2
b100101010000000100011 3
b100011 4
b101 6
b1 7
b0 8
b10 9
b10 :
bx A
xE
1F
0H
0K
0L
b10000 U
b100101010000000100011 V
b100011 W
b0 X
b10 Y
b101 Z
b1 [
b0 ]
b1 ^
0_
0`
xa
b0 b
1c
1d
0e
0i
b10 j
#56000
b100 ,
#60000
0!
0-
#65000
1!
b10100 +
1-
b10100 /
b11000 0
b11100 1
b11000 2
b10000101000001010010011 3
b10011 4
b100 7
b101 8
b0 9
b0 :
b100 <
b100 =
b100 >
b110 @
b100 A
0E
0F
1H
0J
0K
0L
b10100 U
b10000101000001010010011 V
b10011 W
b101 X
b0 Y
b100 [
b100 ]
b0 ^
0_
0`
0a
b0 b
0c
1d
1e
b110 g
0i
b10 j
b100 k
bx l
#66000
b101 ,
#70000
0!
0-
#75000
1!
b11000 +
1-
b11000 /
b11100 0
b11000 1
b11100 2
b1000101010000000100011 3
b100011 4
b10 7
b0 8
b10 9
b10 :
b0 <
b0 =
b100 >
b100 ?
b1 @
bx A
xE
1F
0H
b11000 U
b1000101010000000100011 V
b100011 W
b0 X
b10 Y
b10 [
b0 ]
b1 ^
0_
0`
xa
b0 b
1c
1d
0e
b100 f
b1 g
0i
b10 j
b100 k
#76000
b110 ,
#80000
0!
0-
#85000
1!
b1 $
b11100 +
1-
b11100 /
b100000 0
b100100 1
b100000 2
b10000101000001010010011 3
b10011 4
b100 7
b101 8
b0 9
b0 :
b100 <
b100 =
b1000 >
b110 @
b1000 A
0E
0F
1H
b1 N
b11100 U
b10000101000001010010011 V
b10011 W
b101 X
b0 Y
b100 [
b100 ]
b0 ^
0_
0`
0a
b0 b
0c
1d
1e
b110 g
0i
b10 j
b1000 k
bx l
#86000
b111 ,
#90000
0!
0-
#95000
1!
b100000 +
1-
b100000 /
b100100 0
b100110 1
b100100 2
b1000001000000110110011 3
b110011 4
b1 6
b10 7
b11 8
b11 <
b1 =
b1 >
b0 ?
b1 @
b1 A
0G
b10 I
b100000 U
b1000001000000110110011 V
b110011 W
b11 X
b1 Z
b10 [
b11 ]
b1 ^
0_
0`
0a
b10 b
0c
0d
1e
b0 f
b1 g
0i
b10 j
b1 k
bx l
#96000
b1000 ,
#100000
0!
0-
#105000
1!
b100100 +
1-
b100100 /
b101000 0
b100100 1
b101000 2
b1100101010000000100011 3
b100011 4
b101 6
b11 7
b0 8
b10 9
b10 :
b0 <
b0 =
b1000 >
b1000 ?
bx A
xE
1F
1G
0H
b0 I
0J
b100100 U
b1100101010000000100011 V
b100011 W
b0 X
b10 Y
b101 Z
b11 [
b0 ]
0_
0`
xa
b0 b
1c
1d
0e
b1000 f
0i
b10 j
b1000 k
bx l
#106000
b1001 ,
#110000
0!
0-
#115000
1!
b1 %
b101000 +
1-
b101000 /
b101100 0
b110000 1
b101100 2
b10000101000001010010011 3
b10011 4
b100 7
b101 8
b0 9
b0 :
b100 <
b100 =
b1100 >
b110 @
b1100 A
0E
0F
1H
b1 O
b101000 U
b10000101000001010010011 V
b10011 W
b101 X
b0 Y
b100 [
b100 ]
b0 ^
0_
0`
0a
b0 b
0c
1d
1e
b110 g
0i
b10 j
b1100 k
bx l
#116000
b1010 ,
#120000
0!
0-
#125000
1!
b101100 +
1-
b101100 /
b110000 0
b101100 1
b110000 2
b10000000010010011 3
b10 6
b0 7
b1 8
b0 <
b0 =
b1 >
b1 ?
b0 @
b1 A
b101100 U
b10000000010010011 V
b1 X
b10 Z
b0 [
b0 ]
b1 f
b0 g
0i
b1 k
bx l
#126000
b1011 ,
#130000
0!
0-
#135000
1!
b110000 +
1-
b110000 /
b110100 0
b110000 1
b110100 2
b11000000100010011 3
b11 6
b10 8
b110000 U
b11000000100010011 V
b10 X
b11 Z
b0 ]
#136000
b1100 ,
#140000
0!
0-
#145000
1!
b110100 +
1-
b110100 /
b111000 0
b110010 1
b111000 2
b11111111111100100000001000010011 3
b1111111 5
b100 6
b11111 7
b100 8
b1000 :
b1111111111111111111111111111111111111111111111111111111111111111 <
b1111111111111111111111111111111111111111111111111111111111111111 =
b101 >
b110 ?
b11111 @
b101 A
0J
b110100 U
b11111111111100100000001000010011 V
b100 X
b100 Z
b11111 [
b1111111 \
b1111111111111111111111111111111111111111111111111111111111111111 ]
b110 f
b11111 g
0i
b10 j
b101 k
bx l
#146000
b1101 ,
#150000
0!
0-
#155000
1!
b111000 +
1-
b111000 /
b111100 0
b100000 1
b100000 2
b11111110000000100001010011100011 3
b1100011 4
b0 7
b1001 8
b1 9
b1001 :
b110 ;
b1111111111111111111111111111111111111111111111111111111111110100 <
b0 =
b101 >
b101 ?
b0 @
bx A
1C
xE
0G
0H
b1 I
0J
1K
1L
b111000 U
b11111110000000100001010011100011 V
b1100011 W
b1001 X
b1 Y
b0 [
b1111111111111111111111111111111111111111111111111111111111110100 ]
b11 ^
1_
0`
xa
b1 b
0c
0d
0e
b101 f
b0 g
1i
b110 j
b101 k
bx l
#156000
b1110 ,
#160000
0!
0-
#165000
1!
b100000 +
1-
b100000 /
b100100 0
b100110 1
b100100 2
b1000001000000110110011 3
b110011 4
b0 5
b1 6
b10 7
b11 8
b0 9
b0 :
b10 ;
b11 <
b1 =
b10 >
b1 ?
b1 @
b10 A
0C
0E
1H
b10 I
1K
0L
b100000 U
b1000001000000110110011 V
b110011 W
b11 X
b0 Y
b1 Z
b10 [
b0 \
b11 ]
b1 ^
0_
0`
0a
b10 b
0c
0d
1e
b1 f
b1 g
1i
b10 j
b10 k
bx l
#166000
b1111 ,
#170000
0!
0-
#175000
1!
b100100 +
1-
b100100 /
b101000 0
b100100 1
b101000 2
b1100101010000000100011 3
b100011 4
b101 6
b11 7
b0 8
b10 9
b10 :
b0 <
b0 =
b1100 >
b1100 ?
b10 @
bx A
xE
1F
1G
0H
b0 I
0K
0L
b100100 U
b1100101010000000100011 V
b100011 W
b0 X
b10 Y
b101 Z
b11 [
b0 ]
0_
0`
xa
b0 b
1c
1d
0e
b1100 f
b10 g
0i
b10 j
b1100 k
bx l
#176000
b10000 ,
#180000
0!
0-
#185000
1!
b10 &
b101000 +
1-
b101000 /
b101100 0
b110000 1
b101100 2
b10000101000001010010011 3
b10011 4
b100 7
b101 8
b0 9
b0 :
b100 <
b100 =
b10000 >
b101 @
b10000 A
0E
0F
1H
b10 P
b101000 U
b10000101000001010010011 V
b10011 W
b101 X
b0 Y
b100 [
b100 ]
b0 ^
0_
0`
0a
b0 b
0c
1d
1e
b101 g
0i
b10 j
b10000 k
bx l
#186000
b10001 ,
#190000
0!
0-
#195000
1!
b101100 +
1-
b101100 /
b110000 0
b101100 1
b110000 2
b10000000010010011 3
b10 6
b0 7
b1 8
b0 <
b0 =
b1 >
b1 ?
b0 @
b1 A
b101100 U
b10000000010010011 V
b1 X
b10 Z
b0 [
b0 ]
b1 f
b0 g
0i
b1 k
bx l
#196000
b10010 ,
#200000
0!
0-
#205000
1!
b110000 +
1-
b110000 /
b110100 0
b110000 1
b110100 2
b11000000100010011 3
b11 6
b10 8
b10 >
b10 ?
b10 A
b110000 U
b11000000100010011 V
b10 X
b11 Z
b0 ]
b10 f
0i
b10 k
bx l
#206000
b10011 ,
#210000
0!
0-
#215000
1!
b110100 +
1-
b110100 /
b111000 0
b110010 1
b111000 2
b11111111111100100000001000010011 3
b1111111 5
b100 6
b11111 7
b100 8
b1000 :
b1111111111111111111111111111111111111111111111111111111111111111 <
b1111111111111111111111111111111111111111111111111111111111111111 =
b100 >
b101 ?
b11111 @
b100 A
b110100 U
b11111111111100100000001000010011 V
b100 X
b100 Z
b11111 [
b1111111 \
b1111111111111111111111111111111111111111111111111111111111111111 ]
b101 f
b11111 g
0i
b10 j
b100 k
bx l
#216000
b10100 ,
#220000
0!
0-
#225000
1!
b111000 +
1-
b111000 /
b111100 0
b100000 1
b100000 2
b11111110000000100001010011100011 3
b1100011 4
b0 7
b1001 8
b1 9
b1001 :
b110 ;
b1111111111111111111111111111111111111111111111111111111111110100 <
b0 =
b100 >
b100 ?
b0 @
bx A
1C
xE
0G
0H
b1 I
0J
1K
1L
b111000 U
b11111110000000100001010011100011 V
b1100011 W
b1001 X
b1 Y
b0 [
b1111111111111111111111111111111111111111111111111111111111110100 ]
b11 ^
1_
0`
xa
b1 b
0c
0d
0e
b100 f
b0 g
1i
b110 j
b100 k
bx l
#226000
b10101 ,
#230000
0!
0-
#235000
1!
b100000 +
1-
b100000 /
b100100 0
b100110 1
b100100 2
b1000001000000110110011 3
b110011 4
b0 5
b1 6
b10 7
b11 8
b0 9
b0 :
b10 ;
b11 <
b10 =
b11 >
b1 ?
b10 @
b11 A
0C
0E
1H
b10 I
0K
0L
b100000 U
b1000001000000110110011 V
b110011 W
b11 X
b0 Y
b1 Z
b10 [
b0 \
b11 ]
b1 ^
0_
0`
0a
b10 b
0c
0d
1e
b1 f
b10 g
0i
b10 j
b11 k
bx l
#236000
b10110 ,
#240000
0!
0-
#245000
1!
b100100 +
1-
b100100 /
b101000 0
b100100 1
b101000 2
b1100101010000000100011 3
b100011 4
b101 6
b11 7
b0 8
b10 9
b10 :
b0 <
b0 =
b10000 >
b10000 ?
b11 @
bx A
xE
1F
1G
0H
b0 I
b100100 U
b1100101010000000100011 V
b100011 W
b0 X
b10 Y
b101 Z
b11 [
b0 ]
0_
0`
xa
b0 b
1c
1d
0e
b10000 f
b11 g
0i
b10 j
b10000 k
bx l
#246000
b10111 ,
#250000
0!
0-
#255000
1!
b11 '
b101000 +
1-
b101000 /
b101100 0
b110000 1
b101100 2
b10000101000001010010011 3
b10011 4
b100 7
b101 8
b0 9
b0 :
b100 <
b100 =
b10100 >
b100 @
b10100 A
0E
0F
1H
b11 Q
b101000 U
b10000101000001010010011 V
b10011 W
b101 X
b0 Y
b100 [
b100 ]
b0 ^
0_
0`
0a
b0 b
0c
1d
1e
b100 g
0i
b10 j
b10100 k
bx l
#256000
b11000 ,
#260000
0!
0-
#265000
1!
b101100 +
1-
b101100 /
b110000 0
b101100 1
b110000 2
b10000000010010011 3
b10 6
b0 7
b1 8
b0 <
b0 =
b10 >
b10 ?
b0 @
b10 A
b101100 U
b10000000010010011 V
b1 X
b10 Z
b0 [
b0 ]
b10 f
b0 g
0i
b10 k
bx l
#266000
b11001 ,
#270000
0!
0-
#275000
1!
b110000 +
1-
b110000 /
b110100 0
b110000 1
b110100 2
b11000000100010011 3
b11 6
b10 8
b11 >
b11 ?
b11 A
b110000 U
b11000000100010011 V
b10 X
b11 Z
b0 ]
b11 f
0i
b11 k
bx l
#276000
b11010 ,
#280000
0!
0-
#285000
1!
b110100 +
1-
b110100 /
b111000 0
b110010 1
b111000 2
b11111111111100100000001000010011 3
b1111111 5
b100 6
b11111 7
b100 8
b1000 :
b1111111111111111111111111111111111111111111111111111111111111111 <
b1111111111111111111111111111111111111111111111111111111111111111 =
b11 >
b100 ?
b11111 @
b11 A
b110100 U
b11111111111100100000001000010011 V
b100 X
b100 Z
b11111 [
b1111111 \
b1111111111111111111111111111111111111111111111111111111111111111 ]
b100 f
b11111 g
0i
b10 j
b11 k
bx l
#286000
b11011 ,
#290000
0!
0-
#295000
1!
b111000 +
1-
b111000 /
b111100 0
b100000 1
b100000 2
b11111110000000100001010011100011 3
b1100011 4
b0 7
b1001 8
b1 9
b1001 :
b110 ;
b1111111111111111111111111111111111111111111111111111111111110100 <
b0 =
b11 >
b11 ?
b0 @
bx A
1C
xE
0G
0H
b1 I
0J
1K
1L
b111000 U
b11111110000000100001010011100011 V
b1100011 W
b1001 X
b1 Y
b0 [
b1111111111111111111111111111111111111111111111111111111111110100 ]
b11 ^
1_
0`
xa
b1 b
0c
0d
0e
b11 f
b0 g
1i
b110 j
b11 k
bx l
#296000
b11100 ,
#300000
0!
0-
#305000
1!
b100000 +
1-
b100000 /
b100100 0
b100110 1
b100100 2
b1000001000000110110011 3
b110011 4
b0 5
b1 6
b10 7
b11 8
b0 9
b0 :
b10 ;
b11 <
b11 =
b101 >
b10 ?
b11 @
b101 A
0C
0E
1H
b10 I
0K
0L
b100000 U
b1000001000000110110011 V
b110011 W
b11 X
b0 Y
b1 Z
b10 [
b0 \
b11 ]
b1 ^
0_
0`
0a
b10 b
0c
0d
1e
b10 f
b11 g
0i
b10 j
b101 k
bx l
#306000
b11101 ,
#310000
0!
0-
#315000
1!
b100100 +
1-
b100100 /
b101000 0
b100100 1
b101000 2
b1100101010000000100011 3
b100011 4
b101 6
b11 7
b0 8
b10 9
b10 :
b0 <
b0 =
b10100 >
b10100 ?
b101 @
bx A
xE
1F
1G
0H
b0 I
b100100 U
b1100101010000000100011 V
b100011 W
b0 X
b10 Y
b101 Z
b11 [
b0 ]
0_
0`
xa
b0 b
1c
1d
0e
b10100 f
b101 g
0i
b10 j
b10100 k
bx l
#316000
b11110 ,
#320000
0!
0-
#325000
1!
b101 (
b101000 +
1-
b101000 /
b101100 0
b110000 1
b101100 2
b10000101000001010010011 3
b10011 4
b100 7
b101 8
b0 9
b0 :
b100 <
b100 =
b11000 >
b11 @
b11000 A
0E
0F
1H
b101 R
b101000 U
b10000101000001010010011 V
b10011 W
b101 X
b0 Y
b100 [
b100 ]
b0 ^
0_
0`
0a
b0 b
0c
1d
1e
b11 g
0i
b10 j
b11000 k
bx l
#326000
b11111 ,
#330000
0!
0-
#335000
1!
b101100 +
1-
b101100 /
b110000 0
b101100 1
b110000 2
b10000000010010011 3
b10 6
b0 7
b1 8
b0 <
b0 =
b11 >
b11 ?
b0 @
b11 A
b101100 U
b10000000010010011 V
b1 X
b10 Z
b0 [
b0 ]
b11 f
b0 g
0i
b11 k
bx l
#336000
b100000 ,
#340000
0!
0-
#345000
1!
b110000 +
1-
b110000 /
b110100 0
b110000 1
b110100 2
b11000000100010011 3
b11 6
b10 8
b101 >
b101 ?
b101 A
b110000 U
b11000000100010011 V
b10 X
b11 Z
b0 ]
b101 f
0i
b101 k
bx l
#346000
b100001 ,
#350000
0!
0-
#355000
1!
b110100 +
1-
b110100 /
b111000 0
b110010 1
b111000 2
b11111111111100100000001000010011 3
b1111111 5
b100 6
b11111 7
b100 8
b1000 :
b1111111111111111111111111111111111111111111111111111111111111111 <
b1111111111111111111111111111111111111111111111111111111111111111 =
b10 >
b11 ?
b11111 @
b10 A
b110100 U
b11111111111100100000001000010011 V
b100 X
b100 Z
b11111 [
b1111111 \
b1111111111111111111111111111111111111111111111111111111111111111 ]
b11 f
b11111 g
0i
b10 j
b10 k
bx l
#356000
b100010 ,
#360000
0!
0-
#365000
1!
b111000 +
1-
b111000 /
b111100 0
b100000 1
b100000 2
b11111110000000100001010011100011 3
b1100011 4
b0 7
b1001 8
b1 9
b1001 :
b110 ;
b1111111111111111111111111111111111111111111111111111111111110100 <
b0 =
b10 >
b10 ?
b0 @
bx A
1C
xE
0G
0H
b1 I
0J
1K
1L
b111000 U
b11111110000000100001010011100011 V
b1100011 W
b1001 X
b1 Y
b0 [
b1111111111111111111111111111111111111111111111111111111111110100 ]
b11 ^
1_
0`
xa
b1 b
0c
0d
0e
b10 f
b0 g
1i
b110 j
b10 k
bx l
#366000
b100011 ,
#370000
0!
0-
#375000
1!
b100000 +
1-
b100000 /
b100100 0
b100110 1
b100100 2
b1000001000000110110011 3
b110011 4
b0 5
b1 6
b10 7
b11 8
b0 9
b0 :
b10 ;
b11 <
b101 =
b1000 >
b11 ?
b101 @
b1000 A
0C
0E
1H
b10 I
0K
0L
b100000 U
b1000001000000110110011 V
b110011 W
b11 X
b0 Y
b1 Z
b10 [
b0 \
b11 ]
b1 ^
0_
0`
0a
b10 b
0c
0d
1e
b11 f
b101 g
0i
b10 j
b1000 k
bx l
#376000
b100100 ,
#380000
0!
0-
#385000
1!
b100100 +
1-
b100100 /
b101000 0
b100100 1
b101000 2
b1100101010000000100011 3
b100011 4
b101 6
b11 7
b0 8
b10 9
b10 :
b0 <
b0 =
b11000 >
b11000 ?
b1000 @
bx A
xE
1F
1G
0H
b0 I
b100100 U
b1100101010000000100011 V
b100011 W
b0 X
b10 Y
b101 Z
b11 [
b0 ]
0_
0`
xa
b0 b
1c
1d
0e
b11000 f
b1000 g
0i
b10 j
b11000 k
bx l
#386000
b100101 ,
#390000
0!
0-
#395000
1!
b1000 )
b101000 +
1-
b101000 /
b101100 0
b110000 1
b101100 2
b10000101000001010010011 3
b10011 4
b100 7
b101 8
b0 9
b0 :
b100 <
b100 =
b11100 >
b10 @
b11100 A
0E
0F
1H
b1000 S
b101000 U
b10000101000001010010011 V
b10011 W
b101 X
b0 Y
b100 [
b100 ]
b0 ^
0_
0`
0a
b0 b
0c
1d
1e
b10 g
0i
b10 j
b11100 k
bx l
#396000
b100110 ,
#400000
0!
0-
#405000
1!
b101100 +
1-
b101100 /
b110000 0
b101100 1
b110000 2
b10000000010010011 3
b10 6
b0 7
b1 8
b0 <
b0 =
b101 >
b101 ?
b0 @
b101 A
b101100 U
b10000000010010011 V
b1 X
b10 Z
b0 [
b0 ]
b101 f
b0 g
0i
b101 k
bx l
#406000
b100111 ,
#410000
0!
0-
#415000
1!
b110000 +
1-
b110000 /
b110100 0
b110000 1
b110100 2
b11000000100010011 3
b11 6
b10 8
b1000 >
b1000 ?
b1000 A
b110000 U
b11000000100010011 V
b10 X
b11 Z
b0 ]
b1000 f
0i
b1000 k
bx l
#416000
b101000 ,
#420000
0!
0-
#425000
1!
b110100 +
1-
b110100 /
b111000 0
b110010 1
b111000 2
b11111111111100100000001000010011 3
b1111111 5
b100 6
b11111 7
b100 8
b1000 :
b1111111111111111111111111111111111111111111111111111111111111111 <
b1111111111111111111111111111111111111111111111111111111111111111 =
b1 >
b10 ?
b11111 @
b1 A
b110100 U
b11111111111100100000001000010011 V
b100 X
b100 Z
b11111 [
b1111111 \
b1111111111111111111111111111111111111111111111111111111111111111 ]
b10 f
b11111 g
0i
b10 j
b1 k
bx l
#426000
b101001 ,
#430000
0!
0-
#435000
1!
b111000 +
1-
b111000 /
b111100 0
b100000 1
b100000 2
b11111110000000100001010011100011 3
b1100011 4
b0 7
b1001 8
b1 9
b1001 :
b110 ;
b1111111111111111111111111111111111111111111111111111111111110100 <
b0 =
b1 >
b1 ?
b0 @
bx A
1C
xE
0G
0H
b1 I
0J
1K
1L
b111000 U
b11111110000000100001010011100011 V
b1100011 W
b1001 X
b1 Y
b0 [
b1111111111111111111111111111111111111111111111111111111111110100 ]
b11 ^
1_
0`
xa
b1 b
0c
0d
0e
b1 f
b0 g
1i
b110 j
b1 k
bx l
#436000
b101010 ,
#440000
0!
0-
#445000
1!
b100000 +
1-
b100000 /
b100100 0
b100110 1
b100100 2
b1000001000000110110011 3
b110011 4
b0 5
b1 6
b10 7
b11 8
b0 9
b0 :
b10 ;
b11 <
b1000 =
b1101 >
b101 ?
b1000 @
b1101 A
0C
0E
1H
b10 I
0K
0L
b100000 U
b1000001000000110110011 V
b110011 W
b11 X
b0 Y
b1 Z
b10 [
b0 \
b11 ]
b1 ^
0_
0`
0a
b10 b
0c
0d
1e
b101 f
b1000 g
0i
b10 j
b1101 k
bx l
#446000
b101011 ,
#450000
0!
0-
#455000
1!
b100100 +
1-
b100100 /
b101000 0
b100100 1
b101000 2
b1100101010000000100011 3
b100011 4
b101 6
b11 7
b0 8
b10 9
b10 :
b0 <
b0 =
b11100 >
b11100 ?
b1101 @
bx A
xE
1F
1G
0H
b0 I
b100100 U
b1100101010000000100011 V
b100011 W
b0 X
b10 Y
b101 Z
b11 [
b0 ]
0_
0`
xa
b0 b
1c
1d
0e
b11100 f
b1101 g
0i
b10 j
b11100 k
bx l
#456000
b101100 ,
#460000
0!
0-
#465000
1!
b1101 *
b101000 +
1-
b101000 /
b101100 0
b110000 1
b101100 2
b10000101000001010010011 3
b10011 4
b100 7
b101 8
b0 9
b0 :
b100 <
b100 =
b100000 >
b1 @
b100000 A
0E
0F
1H
b1101 T
b101000 U
b10000101000001010010011 V
b10011 W
b101 X
b0 Y
b100 [
b100 ]
b0 ^
0_
0`
0a
b0 b
0c
1d
1e
b1 g
0i
b10 j
b100000 k
bx l
#466000
b101101 ,
#470000
0!
0-
#475000
1!
b101100 +
1-
b101100 /
b110000 0
b101100 1
b110000 2
b10000000010010011 3
b10 6
b0 7
b1 8
b0 <
b0 =
b1000 >
b1000 ?
b0 @
b1000 A
b101100 U
b10000000010010011 V
b1 X
b10 Z
b0 [
b0 ]
b1000 f
b0 g
0i
b1000 k
bx l
#476000
b101110 ,
#480000
0!
0-
#485000
1!
b110000 +
1-
b110000 /
b110100 0
b110000 1
b110100 2
b11000000100010011 3
b11 6
b10 8
b1101 >
b1101 ?
b1101 A
b110000 U
b11000000100010011 V
b10 X
b11 Z
b0 ]
b1101 f
0i
b1101 k
bx l
#486000
b101111 ,
#490000
0!
0-
#495000
1!
b110100 +
1-
b110100 /
b111000 0
b110010 1
b111000 2
b11111111111100100000001000010011 3
b1111111 5
b100 6
b11111 7
b100 8
b1000 :
b1111111111111111111111111111111111111111111111111111111111111111 <
b1111111111111111111111111111111111111111111111111111111111111111 =
b0 >
b1 ?
b11111 @
b0 A
1J
b110100 U
b11111111111100100000001000010011 V
b100 X
b100 Z
b11111 [
b1111111 \
b1111111111111111111111111111111111111111111111111111111111111111 ]
b1 f
b11111 g
0i
b10 j
b0 k
bx l
#496000
b110000 ,
#500000
0!
0-
#505000
1!
b111000 +
1-
b111000 /
b111100 0
b100000 1
b111100 2
b11111110000000100001010011100011 3
b1100011 4
b0 7
b1001 8
b1 9
b1001 :
b110 ;
b1111111111111111111111111111111111111111111111111111111111110100 <
b0 =
b0 >
b0 ?
b0 @
bx A
1C
xE
0G
0H
b1 I
1J
0K
0L
b111000 U
b11111110000000100001010011100011 V
b1100011 W
b1001 X
b1 Y
b0 [
b1111111111111111111111111111111111111111111111111111111111110100 ]
b11 ^
1_
0`
xa
b1 b
0c
0d
0e
b0 f
b0 g
0i
b110 j
b0 k
bx l
#506000
b110001 ,
#510000
0!
0-
